<svg xmlns="http://www.w3.org/2000/svg" width="48" height="47">
    <path fill="#297EBF" fill-rule="evenodd" d="M46.121 24.055c-.658-.714-1.168-.532-2.457.167-1.153.625-2.893 1.566-4.493-.167-.657-.714-1.168-.534-2.457.167-.662.359-1.52.824-2.432.824-.675 0-1.379-.254-2.06-.991-.31-.338-.287-.861.053-1.17.34-.308.868-.285 1.18.052.655.714 1.167.533 2.458-.167 1.15-.624 2.89-1.569 4.491.167.657.714 1.168.533 2.458-.167 1.153-.625 2.892-1.567 4.492.167.311.338.286.862-.054 1.17-.34.308-.867.285-1.179-.052zm0-8.981c-.658-.714-1.168-.533-2.457.167-1.153.625-2.893 1.566-4.493-.167-.657-.714-1.168-.533-2.457.167-.662.359-1.52.824-2.432.824-.675 0-1.379-.254-2.06-.991-.31-.338-.287-.862.053-1.17.34-.308.868-.286 1.18.052.655.713 1.167.532 2.458-.168 1.15-.624 2.89-1.568 4.491.168.657.714 1.168.533 2.458-.168 1.153-.624 2.892-1.566 4.492.168.311.337.286.861-.054 1.17-.34.307-.867.285-1.179-.052zM19.092 46.995c-4.708 0-8.539-3.798-8.539-8.468V27.92H7.791v2.692c0 1.049-.86 1.902-1.918 1.902H2.599c-1.056 0-1.916-.853-1.916-1.902V16.38c0-1.048.86-1.902 1.916-1.902h3.274c1.058 0 1.918.854 1.918 1.902v2.693h2.762V8.465c0-4.669 3.831-8.467 8.539-8.467 4.71 0 8.54 3.798 8.54 8.467v30.062c0 4.67-3.83 8.468-8.54 8.468zM6.121 27.092V16.38c0-.136-.111-.246-.248-.246H2.599c-.136 0-.247.11-.247.246v14.232c0 .136.111.246.247.246h3.274c.137 0 .248-.11.248-.246v-3.52zm1.67-6.364v5.536h4.91v-5.536h-4.91zm18.172 3.596h-.945c-.461 0-.835-.371-.835-.828 0-.457.374-.828.835-.828h.945V8.465c0-3.755-3.082-6.812-6.871-6.812-3.787 0-6.869 3.057-6.869 6.812v10.608h1.314c.461 0 .835.37.835.828v.037h1.182l.488-12.202c.065-1.633 1.407-2.911 3.055-2.911.902 0 1.753.392 2.335 1.075.583.683.83 1.582.68 2.463l-2.009 11.748c1.154.397 1.99 1.475 1.99 2.752v1.266c0 1.278-.836 2.355-1.99 2.752l2.009 11.749c.15.881-.097 1.779-.68 2.463-.582.683-1.433 1.075-2.335 1.075-1.648 0-2.99-1.279-3.055-2.912l-.488-12.202h-1.182v.038c0 .457-.374.828-.835.828h-1.314v10.607c0 3.756 3.082 6.812 6.869 6.812 3.789 0 6.871-3.056 6.871-6.812V24.324zm-6.82 1.074c.706 0 1.28-.57 1.28-1.269v-1.266c0-.699-.574-1.268-1.28-1.268h-4.771v3.803h4.771zm-1.917 1.656l.484 12.136c.03.742.64 1.322 1.387 1.322.41 0 .795-.177 1.06-.488.264-.31.376-.717.307-1.117l-2.026-11.853h-1.212zm3.238-18.968c.069-.4-.043-.808-.307-1.117-.265-.311-.65-.489-1.06-.489-.747 0-1.357.58-1.387 1.322l-.484 12.136h1.212l2.026-11.852zm12.991 23.833c.655.714 1.167.533 2.458-.167 1.15-.625 2.89-1.569 4.491.167.657.714 1.168.533 2.458-.167 1.153-.625 2.892-1.567 4.492.167.311.338.286.862-.054 1.17-.34.307-.867.285-1.179-.052-.658-.714-1.168-.532-2.457.168-1.153.623-2.893 1.566-4.493-.168-.657-.714-1.168-.533-2.457.168-.662.358-1.52.823-2.432.823-.675 0-1.379-.254-2.06-.991-.31-.338-.287-.862.053-1.17.34-.308.868-.286 1.18.052z"/>
</svg>
