<svg xmlns="http://www.w3.org/2000/svg" width="25" height="16">
    <path fill="#4D9C00" fill-rule="evenodd" d="M12.725 15.059C6.11 15.059.748 7.626.748 7.626S6.11.194 12.725.194c6.614 0 11.977 7.432 11.977 7.432s-5.363 7.433-11.977 7.433zm.009-13.625c-5.531 0-10.015 6.084-10.015 6.084s4.484 6.084 10.015 6.084c5.53 0 10.014-6.084 10.014-6.084s-4.484-6.084-10.014-6.084zm-.021 10.043c-2.743 0-4.966-2.224-4.966-4.967 0-2.743 2.223-4.966 4.966-4.966 1.113 0 2.13.379 2.958.997-.273-.091-.559-.152-.862-.152-1.508 0-2.73 1.222-2.73 2.73 0 1.507 1.222 2.73 2.73 2.73 1.44 0 2.606-1.119 2.71-2.532.095.384.16.78.16 1.193 0 2.743-2.223 4.967-4.966 4.967z"/>
</svg>
