<svg xmlns="http://www.w3.org/2000/svg" width="50" height="46">
    <path fill="#297EBF" fill-rule="evenodd" d="M49.364 31.366l-3.042 1.644c.033.472.027.946-.02 1.413-.047.466-.134.932-.261 1.388l2.654 2.235c.222.187.263.517.094.754l-2.326 3.281c-.168.238-.489.301-.732.146l-2.92-1.86c-.771.53-1.63.924-2.524 1.156l-.574 3.455c-.046.269-.275.463-.539.463-.019 0-.037-.001-.055-.003l-3.956-.41c-.286-.03-.5-.281-.49-.573l.121-3.502c-.829-.412-1.593-.974-2.241-1.65l-3.229 1.221c-.271.101-.572-.026-.689-.293l-1.628-3.693c-.118-.267-.012-.581.242-.718l3.043-1.644c-.034-.473-.027-.946.019-1.412.006-.065.028-.128.036-.192l-3.263 2.413c-.233.173-.556.131-.74-.094l-2.68-3.275c-.83.368-1.696.654-2.584.852l-.278 4.289c-.02.292-.258.519-.545.519h-4.342c-.288 0-.526-.227-.545-.519l-.279-4.289c-.889-.198-1.754-.484-2.582-.852l-2.681 3.275c-.182.226-.507.267-.74.094l-3.512-2.598c-.233-.172-.295-.497-.142-.745l2.235-3.612c-.598-.685-1.128-1.425-1.583-2.206l-4.077 1.051c-.277.071-.564-.088-.653-.367L.014 22.304c-.089-.278.05-.579.316-.688l3.897-1.585c-.049-.48-.072-.954-.072-1.413 0-.449.022-.912.068-1.382L.33 15.653c-.266-.109-.405-.41-.316-.688l1.342-4.204c.089-.279.376-.437.653-.367l4.06 1.046c.455-.786.987-1.53 1.588-2.22L5.434 5.627c-.153-.248-.091-.574.142-.745l3.512-2.598c.232-.173.557-.132.74.094l2.661 3.251c.835-.372 1.708-.661 2.604-.86L15.37.512c.019-.292.257-.519.545-.519h4.342c.287 0 .525.227.545.519l.277 4.257c.896.199 1.768.488 2.605.86l2.66-3.251c.184-.226.507-.266.74-.094l3.513 2.598c.232.171.295.498.14.745l-2.223 3.592c.601.691 1.134 1.435 1.588 2.221l4.062-1.046c.275-.07.564.088.653.367l1.341 4.204c.089.278-.049.579-.317.688l-3.893 1.583c.046.472.069.928.069 1.382 0 .459-.024.933-.071 1.413l3.895 1.585c.268.109.406.41.317.688l-1.238 3.881c.454-.216.923-.397 1.407-.523l.574-3.454c.049-.289.311-.487.594-.46l3.955.41c.287.03.501.28.491.573l-.122 3.502c.83.412 1.594.974 2.242 1.65l3.229-1.221c.27-.1.571.026.688.293l1.628 3.692c.118.268.012.582-.242.719zm-18.212-10.46c-.231-.095-.371-.336-.338-.588.074-.581.111-1.152.111-1.7 0-.543-.034-1.089-.109-1.67-.03-.251.109-.492.34-.587l3.805-1.548-1.025-3.214-3.969 1.023c-.24.062-.494-.05-.613-.272-.52-.968-1.167-1.872-1.921-2.687-.17-.184-.197-.463-.064-.677l2.173-3.511-2.687-1.986-2.6 3.178c-.159.196-.429.255-.654.146-.993-.481-2.05-.83-3.14-1.037-.246-.047-.429-.257-.444-.51l-.271-4.161h-3.32l-.27 4.161c-.017.253-.201.463-.445.51-1.091.207-2.147.556-3.14 1.037-.224.11-.494.05-.654-.146L9.316 3.489 6.631 5.475l2.172 3.511c.133.214.106.493-.064.677-.755.815-1.401 1.719-1.921 2.687-.12.222-.374.334-.614.272l-3.967-1.023-1.027 3.214 3.805 1.548c.231.095.372.336.34.587-.072.57-.108 1.132-.108 1.67 0 .548.037 1.119.112 1.7.032.252-.107.493-.339.588l-3.81 1.55 1.027 3.213 3.984-1.027c.24-.063.492.05.612.271.521.963 1.165 1.862 1.918 2.673.171.184.197.463.064.678l-2.184 3.53 2.685 1.986 2.619-3.201c.162-.196.429-.256.655-.147.986.476 2.036.822 3.118 1.029.246.047.428.257.445.509l.273 4.194h3.32l.273-4.194c.015-.252.199-.462.443-.509 1.083-.207 2.133-.553 3.121-1.029.224-.109.492-.049.653.147l2.619 3.201 2.687-1.986-2.185-3.53c-.133-.215-.106-.494.064-.678.752-.811 1.398-1.71 1.919-2.673.119-.221.371-.334.612-.271l3.984 1.027 1.025-3.213-3.809-1.55zm2.557 5.852l.094.06c.014-.009.03-.015.044-.024l-.138-.036zm13.481 1.128l-3.091 1.169c-.211.078-.448.02-.599-.153-.675-.776-1.525-1.401-2.456-1.807-.207-.091-.337-.302-.329-.531l.117-3.352-2.939-.305-.55 3.307c-.039.226-.21.406-.43.452-.99.206-1.946.643-2.763 1.266-.181.136-.425.147-.617.026l-2.796-1.782-1.729 2.438 2.541 2.141c.173.147.241.386.17.604-.161.494-.27 1.005-.321 1.517-.051.511-.046 1.034.013 1.551.026.229-.087.449-.286.557l-2.912 1.574 1.209 2.743 3.092-1.17c.212-.079.449-.02.599.153.676.776 1.525 1.401 2.455 1.807.207.09.339.302.33.531l-.116 3.352 2.938.305.551-3.307c.037-.227.208-.406.429-.452.99-.206 1.947-.644 2.764-1.265.181-.138.425-.148.616-.026l2.796 1.78 1.728-2.438-2.54-2.14c-.173-.146-.241-.386-.17-.603.162-.496.269-1.006.321-1.518.051-.512.047-1.034-.013-1.551-.027-.228.087-.449.287-.557l2.912-1.574-1.211-2.742zm-8.88 9.188c-.116 0-.232-.006-.351-.018-.908-.095-1.726-.543-2.303-1.264s-.845-1.627-.751-2.552c.19-1.901 1.84-3.303 3.749-3.11.908.094 1.727.543 2.304 1.264.576.721.844 1.627.751 2.552-.179 1.783-1.64 3.128-3.399 3.128zm1.801-4.977c-.393-.491-.951-.797-1.568-.861-.081-.008-.161-.012-.24-.012-1.196 0-2.19.915-2.312 2.129-.062.629.119 1.246.511 1.736.393.491.95.797 1.569.861 1.301.139 2.422-.823 2.551-2.117.063-.629-.118-1.246-.511-1.736zm-22.026-7.696c-3.132 0-5.68-2.594-5.68-5.783 0-3.189 2.548-5.782 5.68-5.782 3.134 0 5.682 2.593 5.682 5.782s-2.548 5.783-5.682 5.783zm0-10.454c-2.529 0-4.588 2.096-4.588 4.671 0 2.576 2.059 4.671 4.588 4.671 2.531 0 4.59-2.095 4.59-4.671 0-2.575-2.059-4.671-4.59-4.671z"/>
</svg>
