<svg xmlns="http://www.w3.org/2000/svg" width="43" height="42">
    <path fill="#297EBF" fill-rule="evenodd" d="M35.04 41.992H8.111c-3.973 0-7.205-3.231-7.205-7.203V7.858C.906 3.886 4.138.654 8.111.654H35.04c3.973 0 7.205 3.232 7.205 7.204v26.931c0 3.972-3.232 7.203-7.205 7.203zm5.184-34.134c0-2.859-2.324-5.184-5.184-5.184H8.111c-2.86 0-5.185 2.325-5.185 5.184v26.931c0 2.858 2.325 5.184 5.185 5.184H35.04c2.86 0 5.184-2.326 5.184-5.184V7.858zM23.869 26.07h-3.498v9.279h-8.144V8.38h11.642c4.878 0 8.845 3.967 8.845 8.845 0 4.877-3.967 8.845-8.845 8.845zm0-15.67h-9.622v22.929h4.106V24.05h5.516c3.764 0 6.827-3.062 6.827-6.825 0-3.763-3.063-6.825-6.827-6.825zm0 9.545h-5.516v-5.441h5.516c1.501 0 2.721 1.22 2.721 2.721 0 1.5-1.22 2.72-2.721 2.72zm0-3.421h-3.498v1.402h3.498c.386 0 .702-.315.702-.701 0-.387-.316-.701-.702-.701z"/>
</svg>
