<svg xmlns="http://www.w3.org/2000/svg" width="17" height="19">
    <path fill="#3E9FCF" fill-rule="evenodd" d="M10.983 7.99h.971v7.05h-.971V7.99zm-2.957.063h.98v6.924h-.98V8.053zM5.012 7.99h.975v7.018h-.975V7.99zM3.034 5.032s-.086 10.801-.086 11.763c0 .963 1.14 1.12 1.14 1.12h8.833s1.116.035 1.116-1.12c0-1.154.02-11.763.02-11.763H3.034zM8.18 1.155c-1.548-.053-2.14.807-2.191 1.767l-.002.093h4.847l-.002-.093c-.05-.96-.536-1.838-2.262-1.767h-.39zM8.18 0h.39C10.575 0 11.9.908 12 2.828l.005.187h4.056c.519 0 .938.488.938.991s-.607 1.026-1.126 1.026h-.903l.049 11.973c0 1.083-.627 1.995-2.065 1.995H4.043c-.856 0-2.065-.317-2.065-1.995l.048-11.973h-.62c-.519 0-.939-.523-.939-1.026s.42-.991.939-.991H4.816l.005-.187C4.922.908 6.176 0 8.18 0z"/>
</svg>
