{
  "logo": null,
  "name": "ב. ג. פאר ניהול אחזקות ופרויקטים בע\"מ",
  "phone": "09-8874428",
  "fax": "09-8874030",
  "email": "office@bgmanage.co.il",
  "website": "bgmanage.co.il",
  "reportPeriod": {
    "date": ["1/1/2020", "31/12/2020"],
    "collections": [
      {
        "label": "גביה עבור 2020",
        "value": 465332
      },
      {
        "label": "גביה עבור 2021",
        "value": 168053
      },
      {
        "label": "גביה עבור 2022",
        "value": 4061
      },
      {
        "label": "גביה עבור 2022",
        "value": 512,
        "hint": "סכומים שנגבו בתקופת הדוח ולא שויכו לאף תקופה"
      }
    ]
  },
  "tables": {
    "ordinaryIncome": [
      {
        "id": 1,
        "type": "הכנסות נטו",
        "budget": 438188,
        "inPractice": 424332,
        "implementaion": 97
      }
    ],
    "ordinaryExpenses": [
      {
        "id": 1,
        "type": "סוג הוצאות",
        "budget": 200,
        "inPractice": 200,
        "implementaion": "",
        "additional": [
          {
            "id": 1,
            "date": "13/12/20",
            "doubt": "שם של ספק",
            "for": "ביטוח צד שלישי",
            "sum": "1771.83",
            "invoicing": "https://opendocs.com/wp-content/uploads/2019/11/Google-Sheets-Featured-Image.jpg"
          },
          {
            "id": 2,
            "date": "13/12/20",
            "doubt": "שם של ספק",
            "for": "ביטוח צד שלישי",
            "sum": "1771.83",
            "invoicing": "https://opendocs.com/wp-content/uploads/2019/11/Google-Sheets-Featured-Image.jpg"
          },
          {
            "id": 3,
            "date": "13/12/20",
            "doubt": "שם של ספק",
            "for": "ביטוח צד שלישי",
            "sum": "1771.83",
            "invoicing": "https://opendocs.com/wp-content/uploads/2019/11/Google-Sheets-Featured-Image.jpg"
          },
          {
            "id": 4,
            "date": "13/12/20",
            "doubt": "שם של ספק",
            "for": "ביטוח צד שלישי",
            "sum": "1771.83",
            "invoicing": "https://opendocs.com/wp-content/uploads/2019/11/Google-Sheets-Featured-Image.jpg"
          },
          {
            "id": 5,
            "date": "13/12/20",
            "doubt": "שם של ספק",
            "for": "ביטוח צד שלישי",
            "sum": "1771.83",
            "invoicing": "https://opendocs.com/wp-content/uploads/2019/11/Google-Sheets-Featured-Image.jpg"
          },
          {
            "id": 6,
            "date": "13/12/20",
            "doubt": "שם של ספק",
            "for": "ביטוח צד שלישי",
            "sum": "1771.83",
            "invoicing": "https://opendocs.com/wp-content/uploads/2019/11/Google-Sheets-Featured-Image.jpg"
          },
          {
            "id": 7,
            "date": "13/12/20",
            "doubt": "שם של ספק",
            "for": "ביטוח צד שלישי",
            "sum": "1771.83",
            "invoicing": "https://opendocs.com/wp-content/uploads/2019/11/Google-Sheets-Featured-Image.jpg"
          },
          {
            "id": 8,
            "date": "13/12/20",
            "doubt": "שם של ספק",
            "for": "ביטוח צד שלישי",
            "sum": "1771.83",
            "invoicing": "https://opendocs.com/wp-content/uploads/2019/11/Google-Sheets-Featured-Image.jpg"
          },
          {
            "id": 9,
            "date": "13/12/20",
            "doubt": "שם של ספק",
            "for": "ביטוח צד שלישי",
            "sum": "1771.83",
            "invoicing": "https://opendocs.com/wp-content/uploads/2019/11/Google-Sheets-Featured-Image.jpg"
          },
          {
            "id": 10,
            "date": "13/12/20",
            "doubt": "שם של ספק",
            "for": "ביטוח צד שלישי",
            "sum": "1771.83",
            "invoicing": "https://opendocs.com/wp-content/uploads/2019/11/Google-Sheets-Featured-Image.jpg"
          },
          {
            "id": 11,
            "date": "13/12/20",
            "doubt": "שם של ספק",
            "for": "ביטוח צד שלישי",
            "sum": "1771.83",
            "invoicing": "https://opendocs.com/wp-content/uploads/2019/11/Google-Sheets-Featured-Image.jpg"
          },
          {
            "id": 12,
            "date": "13/12/20",
            "doubt": "שם של ספק",
            "for": "ביטוח צד שלישי",
            "sum": "1771.83",
            "invoicing": "https://opendocs.com/wp-content/uploads/2019/11/Google-Sheets-Featured-Image.jpg"
          }
        ]
      },
      {
        "id": 2,
        "type": "ביטוח",
        "budget": 20000,
        "inPractice": 21262,
        "implementaion": "",
        "additional": [
          {
            "id": 1,
            "date": "13/12/20",
            "doubt": "שם של ספק",
            "for": "ביטוח צד שלישי",
            "sum": "1771.83",
            "invoicing": "https://opendocs.com/wp-content/uploads/2019/11/Google-Sheets-Featured-Image.jpg"
          },
          {
            "id": 2,
            "date": "13/12/20",
            "doubt": "שם של ספק",
            "for": "ביטוח צד שלישי",
            "sum": "1771.83",
            "invoicing": "https://opendocs.com/wp-content/uploads/2019/11/Google-Sheets-Featured-Image.jpg"
          },
          {
            "id": 3,
            "date": "13/12/20",
            "doubt": "שם של ספק",
            "for": "ביטוח צד שלישי",
            "sum": "1771.83",
            "invoicing": "https://opendocs.com/wp-content/uploads/2019/11/Google-Sheets-Featured-Image.jpg"
          },
          {
            "id": 4,
            "date": "13/12/20",
            "doubt": "שם של ספק",
            "for": "ביטוח צד שלישי",
            "sum": "1771.83",
            "invoicing": "https://opendocs.com/wp-content/uploads/2019/11/Google-Sheets-Featured-Image.jpg"
          },
          {
            "id": 5,
            "date": "13/12/20",
            "doubt": "שם של ספק",
            "for": "ביטוח צד שלישי",
            "sum": "1771.83",
            "invoicing": "https://opendocs.com/wp-content/uploads/2019/11/Google-Sheets-Featured-Image.jpg"
          },
          {
            "id": 6,
            "date": "13/12/20",
            "doubt": "שם של ספק",
            "for": "ביטוח צד שלישי",
            "sum": "1771.83",
            "invoicing": "https://opendocs.com/wp-content/uploads/2019/11/Google-Sheets-Featured-Image.jpg"
          },
          {
            "id": 7,
            "date": "13/12/20",
            "doubt": "שם של ספק",
            "for": "ביטוח צד שלישי",
            "sum": "1771.83",
            "invoicing": "https://opendocs.com/wp-content/uploads/2019/11/Google-Sheets-Featured-Image.jpg"
          },
          {
            "id": 8,
            "date": "13/12/20",
            "doubt": "שם של ספק",
            "for": "ביטוח צד שלישי",
            "sum": "1771.83",
            "invoicing": "https://opendocs.com/wp-content/uploads/2019/11/Google-Sheets-Featured-Image.jpg"
          },
          {
            "id": 9,
            "date": "13/12/20",
            "doubt": "שם של ספק",
            "for": "ביטוח צד שלישי",
            "sum": "1771.83",
            "invoicing": "https://opendocs.com/wp-content/uploads/2019/11/Google-Sheets-Featured-Image.jpg"
          },
          {
            "id": 10,
            "date": "13/12/20",
            "doubt": "שם של ספק",
            "for": "ביטוח צד שלישי",
            "sum": "1771.83",
            "invoicing": "https://opendocs.com/wp-content/uploads/2019/11/Google-Sheets-Featured-Image.jpg"
          },
          {
            "id": 11,
            "date": "13/12/20",
            "doubt": "שם של ספק",
            "for": "ביטוח צד שלישי",
            "sum": "1771.83",
            "invoicing": "https://opendocs.com/wp-content/uploads/2019/11/Google-Sheets-Featured-Image.jpg"
          },
          {
            "id": 12,
            "date": "13/12/20",
            "doubt": "שם של ספק",
            "for": "ביטוח צד שלישי",
            "sum": "1771.83",
            "invoicing": "https://opendocs.com/wp-content/uploads/2019/11/Google-Sheets-Featured-Image.jpg"
          }
        ]
      },
      {
        "id": 3,
        "type": "גינון שוטף",
        "budget": null,
        "inPractice": 500,
        "implementaion": "",
        "additional": [
          {
            "id": 1,
            "date": "13/12/20",
            "doubt": "שם של ספק",
            "for": "ביטוח צד שלישי",
            "sum": "1771.83",
            "invoicing": "https://opendocs.com/wp-content/uploads/2019/11/Google-Sheets-Featured-Image.jpg"
          },
          {
            "id": 2,
            "date": "13/12/20",
            "doubt": "שם של ספק",
            "for": "ביטוח צד שלישי",
            "sum": "1771.83",
            "invoicing": "https://opendocs.com/wp-content/uploads/2019/11/Google-Sheets-Featured-Image.jpg"
          },
          {
            "id": 3,
            "date": "13/12/20",
            "doubt": "שם של ספק",
            "for": "ביטוח צד שלישי",
            "sum": "1771.83",
            "invoicing": "https://opendocs.com/wp-content/uploads/2019/11/Google-Sheets-Featured-Image.jpg"
          },
          {
            "id": 4,
            "date": "13/12/20",
            "doubt": "שם של ספק",
            "for": "ביטוח צד שלישי",
            "sum": "1771.83",
            "invoicing": "https://opendocs.com/wp-content/uploads/2019/11/Google-Sheets-Featured-Image.jpg"
          },
          {
            "id": 5,
            "date": "13/12/20",
            "doubt": "שם של ספק",
            "for": "ביטוח צד שלישי",
            "sum": "1771.83",
            "invoicing": "https://opendocs.com/wp-content/uploads/2019/11/Google-Sheets-Featured-Image.jpg"
          },
          {
            "id": 6,
            "date": "13/12/20",
            "doubt": "שם של ספק",
            "for": "ביטוח צד שלישי",
            "sum": "1771.83",
            "invoicing": "https://opendocs.com/wp-content/uploads/2019/11/Google-Sheets-Featured-Image.jpg"
          },
          {
            "id": 7,
            "date": "13/12/20",
            "doubt": "שם של ספק",
            "for": "ביטוח צד שלישי",
            "sum": "1771.83",
            "invoicing": "https://opendocs.com/wp-content/uploads/2019/11/Google-Sheets-Featured-Image.jpg"
          },
          {
            "id": 8,
            "date": "13/12/20",
            "doubt": "שם של ספק",
            "for": "ביטוח צד שלישי",
            "sum": "1771.83",
            "invoicing": "https://opendocs.com/wp-content/uploads/2019/11/Google-Sheets-Featured-Image.jpg"
          },
          {
            "id": 9,
            "date": "13/12/20",
            "doubt": "שם של ספק",
            "for": "ביטוח צד שלישי",
            "sum": "1771.83",
            "invoicing": "https://opendocs.com/wp-content/uploads/2019/11/Google-Sheets-Featured-Image.jpg"
          },
          {
            "id": 10,
            "date": "13/12/20",
            "doubt": "שם של ספק",
            "for": "ביטוח צד שלישי",
            "sum": "1771.83",
            "invoicing": "https://opendocs.com/wp-content/uploads/2019/11/Google-Sheets-Featured-Image.jpg"
          },
          {
            "id": 11,
            "date": "13/12/20",
            "doubt": "שם של ספק",
            "for": "ביטוח צד שלישי",
            "sum": "1771.83",
            "invoicing": "https://opendocs.com/wp-content/uploads/2019/11/Google-Sheets-Featured-Image.jpg"
          },
          {
            "id": 12,
            "date": "13/12/20",
            "doubt": "שם של ספק",
            "for": "ביטוח צד שלישי",
            "sum": "1771.83",
            "invoicing": "https://opendocs.com/wp-content/uploads/2019/11/Google-Sheets-Featured-Image.jpg"
          }
        ]
      },
      {
        "id": 4,
        "type": "החזרים - שולם ע\"י אביב ניהול",
        "budget": null,
        "inPractice": 13966,
        "implementaion": "",
        "additional": [
          {
            "id": 1,
            "date": "13/12/20",
            "doubt": "שם של ספק",
            "for": "ביטוח צד שלישי",
            "sum": "1771.83",
            "invoicing": "https://opendocs.com/wp-content/uploads/2019/11/Google-Sheets-Featured-Image.jpg"
          },
          {
            "id": 2,
            "date": "13/12/20",
            "doubt": "שם של ספק",
            "for": "ביטוח צד שלישי",
            "sum": "1771.83",
            "invoicing": "https://opendocs.com/wp-content/uploads/2019/11/Google-Sheets-Featured-Image.jpg"
          },
          {
            "id": 3,
            "date": "13/12/20",
            "doubt": "שם של ספק",
            "for": "ביטוח צד שלישי",
            "sum": "1771.83",
            "invoicing": "https://opendocs.com/wp-content/uploads/2019/11/Google-Sheets-Featured-Image.jpg"
          },
          {
            "id": 4,
            "date": "13/12/20",
            "doubt": "שם של ספק",
            "for": "ביטוח צד שלישי",
            "sum": "1771.83",
            "invoicing": "https://opendocs.com/wp-content/uploads/2019/11/Google-Sheets-Featured-Image.jpg"
          },
          {
            "id": 5,
            "date": "13/12/20",
            "doubt": "שם של ספק",
            "for": "ביטוח צד שלישי",
            "sum": "1771.83",
            "invoicing": "https://opendocs.com/wp-content/uploads/2019/11/Google-Sheets-Featured-Image.jpg"
          },
          {
            "id": 6,
            "date": "13/12/20",
            "doubt": "שם של ספק",
            "for": "ביטוח צד שלישי",
            "sum": "1771.83",
            "invoicing": "https://opendocs.com/wp-content/uploads/2019/11/Google-Sheets-Featured-Image.jpg"
          },
          {
            "id": 7,
            "date": "13/12/20",
            "doubt": "שם של ספק",
            "for": "ביטוח צד שלישי",
            "sum": "1771.83",
            "invoicing": "https://opendocs.com/wp-content/uploads/2019/11/Google-Sheets-Featured-Image.jpg"
          },
          {
            "id": 8,
            "date": "13/12/20",
            "doubt": "שם של ספק",
            "for": "ביטוח צד שלישי",
            "sum": "1771.83",
            "invoicing": "https://opendocs.com/wp-content/uploads/2019/11/Google-Sheets-Featured-Image.jpg"
          },
          {
            "id": 9,
            "date": "13/12/20",
            "doubt": "שם של ספק",
            "for": "ביטוח צד שלישי",
            "sum": "1771.83",
            "invoicing": "https://opendocs.com/wp-content/uploads/2019/11/Google-Sheets-Featured-Image.jpg"
          },
          {
            "id": 10,
            "date": "13/12/20",
            "doubt": "שם של ספק",
            "for": "ביטוח צד שלישי",
            "sum": "1771.83",
            "invoicing": "https://opendocs.com/wp-content/uploads/2019/11/Google-Sheets-Featured-Image.jpg"
          },
          {
            "id": 11,
            "date": "13/12/20",
            "doubt": "שם של ספק",
            "for": "ביטוח צד שלישי",
            "sum": "1771.83",
            "invoicing": "https://opendocs.com/wp-content/uploads/2019/11/Google-Sheets-Featured-Image.jpg"
          },
          {
            "id": 12,
            "date": "13/12/20",
            "doubt": "שם של ספק",
            "for": "ביטוח צד שלישי",
            "sum": "1771.83",
            "invoicing": "https://opendocs.com/wp-content/uploads/2019/11/Google-Sheets-Featured-Image.jpg"
          }
        ]
      },
      {
        "id": 5,
        "type": "התחשבנות בין בניינים",
        "budget": null,
        "inPractice": -10067,
        "implementaion": "",
        "additional": [
          {
            "id": 1,
            "date": "13/12/20",
            "doubt": "שם של ספק",
            "for": "ביטוח צד שלישי",
            "sum": "1771.83",
            "invoicing": "https://opendocs.com/wp-content/uploads/2019/11/Google-Sheets-Featured-Image.jpg"
          },
          {
            "id": 2,
            "date": "13/12/20",
            "doubt": "שם של ספק",
            "for": "ביטוח צד שלישי",
            "sum": "1771.83",
            "invoicing": "https://opendocs.com/wp-content/uploads/2019/11/Google-Sheets-Featured-Image.jpg"
          },
          {
            "id": 3,
            "date": "13/12/20",
            "doubt": "שם של ספק",
            "for": "ביטוח צד שלישי",
            "sum": "1771.83",
            "invoicing": "https://opendocs.com/wp-content/uploads/2019/11/Google-Sheets-Featured-Image.jpg"
          },
          {
            "id": 4,
            "date": "13/12/20",
            "doubt": "שם של ספק",
            "for": "ביטוח צד שלישי",
            "sum": "1771.83",
            "invoicing": "https://opendocs.com/wp-content/uploads/2019/11/Google-Sheets-Featured-Image.jpg"
          },
          {
            "id": 5,
            "date": "13/12/20",
            "doubt": "שם של ספק",
            "for": "ביטוח צד שלישי",
            "sum": "1771.83",
            "invoicing": "https://opendocs.com/wp-content/uploads/2019/11/Google-Sheets-Featured-Image.jpg"
          },
          {
            "id": 6,
            "date": "13/12/20",
            "doubt": "שם של ספק",
            "for": "ביטוח צד שלישי",
            "sum": "1771.83",
            "invoicing": "https://opendocs.com/wp-content/uploads/2019/11/Google-Sheets-Featured-Image.jpg"
          },
          {
            "id": 7,
            "date": "13/12/20",
            "doubt": "שם של ספק",
            "for": "ביטוח צד שלישי",
            "sum": "1771.83",
            "invoicing": "https://opendocs.com/wp-content/uploads/2019/11/Google-Sheets-Featured-Image.jpg"
          },
          {
            "id": 8,
            "date": "13/12/20",
            "doubt": "שם של ספק",
            "for": "ביטוח צד שלישי",
            "sum": "1771.83",
            "invoicing": "https://opendocs.com/wp-content/uploads/2019/11/Google-Sheets-Featured-Image.jpg"
          },
          {
            "id": 9,
            "date": "13/12/20",
            "doubt": "שם של ספק",
            "for": "ביטוח צד שלישי",
            "sum": "1771.83",
            "invoicing": "https://opendocs.com/wp-content/uploads/2019/11/Google-Sheets-Featured-Image.jpg"
          },
          {
            "id": 10,
            "date": "13/12/20",
            "doubt": "שם של ספק",
            "for": "ביטוח צד שלישי",
            "sum": "1771.83",
            "invoicing": "https://opendocs.com/wp-content/uploads/2019/11/Google-Sheets-Featured-Image.jpg"
          },
          {
            "id": 11,
            "date": "13/12/20",
            "doubt": "שם של ספק",
            "for": "ביטוח צד שלישי",
            "sum": "1771.83",
            "invoicing": "https://opendocs.com/wp-content/uploads/2019/11/Google-Sheets-Featured-Image.jpg"
          },
          {
            "id": 12,
            "date": "13/12/20",
            "doubt": "שם של ספק",
            "for": "ביטוח צד שלישי",
            "sum": "1771.83",
            "invoicing": "https://opendocs.com/wp-content/uploads/2019/11/Google-Sheets-Featured-Image.jpg"
          }
        ]
      },
      {
        "id": 6,
        "type": "חברת חשמל",
        "budget": null,
        "inPractice": 54151,
        "implementaion": "",
        "additional": [
          {
            "id": 1,
            "date": "13/12/20",
            "doubt": "שם של ספק",
            "for": "ביטוח צד שלישי",
            "sum": "1771.83",
            "invoicing": "https://opendocs.com/wp-content/uploads/2019/11/Google-Sheets-Featured-Image.jpg"
          },
          {
            "id": 2,
            "date": "13/12/20",
            "doubt": "שם של ספק",
            "for": "ביטוח צד שלישי",
            "sum": "1771.83",
            "invoicing": "https://opendocs.com/wp-content/uploads/2019/11/Google-Sheets-Featured-Image.jpg"
          },
          {
            "id": 3,
            "date": "13/12/20",
            "doubt": "שם של ספק",
            "for": "ביטוח צד שלישי",
            "sum": "1771.83",
            "invoicing": "https://opendocs.com/wp-content/uploads/2019/11/Google-Sheets-Featured-Image.jpg"
          },
          {
            "id": 4,
            "date": "13/12/20",
            "doubt": "שם של ספק",
            "for": "ביטוח צד שלישי",
            "sum": "1771.83",
            "invoicing": "https://opendocs.com/wp-content/uploads/2019/11/Google-Sheets-Featured-Image.jpg"
          },
          {
            "id": 5,
            "date": "13/12/20",
            "doubt": "שם של ספק",
            "for": "ביטוח צד שלישי",
            "sum": "1771.83",
            "invoicing": "https://opendocs.com/wp-content/uploads/2019/11/Google-Sheets-Featured-Image.jpg"
          },
          {
            "id": 6,
            "date": "13/12/20",
            "doubt": "שם של ספק",
            "for": "ביטוח צד שלישי",
            "sum": "1771.83",
            "invoicing": "https://opendocs.com/wp-content/uploads/2019/11/Google-Sheets-Featured-Image.jpg"
          },
          {
            "id": 7,
            "date": "13/12/20",
            "doubt": "שם של ספק",
            "for": "ביטוח צד שלישי",
            "sum": "1771.83",
            "invoicing": "https://opendocs.com/wp-content/uploads/2019/11/Google-Sheets-Featured-Image.jpg"
          },
          {
            "id": 8,
            "date": "13/12/20",
            "doubt": "שם של ספק",
            "for": "ביטוח צד שלישי",
            "sum": "1771.83",
            "invoicing": "https://opendocs.com/wp-content/uploads/2019/11/Google-Sheets-Featured-Image.jpg"
          },
          {
            "id": 9,
            "date": "13/12/20",
            "doubt": "שם של ספק",
            "for": "ביטוח צד שלישי",
            "sum": "1771.83",
            "invoicing": "https://opendocs.com/wp-content/uploads/2019/11/Google-Sheets-Featured-Image.jpg"
          },
          {
            "id": 10,
            "date": "13/12/20",
            "doubt": "שם של ספק",
            "for": "ביטוח צד שלישי",
            "sum": "1771.83",
            "invoicing": "https://opendocs.com/wp-content/uploads/2019/11/Google-Sheets-Featured-Image.jpg"
          },
          {
            "id": 11,
            "date": "13/12/20",
            "doubt": "שם של ספק",
            "for": "ביטוח צד שלישי",
            "sum": "1771.83",
            "invoicing": "https://opendocs.com/wp-content/uploads/2019/11/Google-Sheets-Featured-Image.jpg"
          },
          {
            "id": 12,
            "date": "13/12/20",
            "doubt": "שם של ספק",
            "for": "ביטוח צד שלישי",
            "sum": "1771.83",
            "invoicing": "https://opendocs.com/wp-content/uploads/2019/11/Google-Sheets-Featured-Image.jpg"
          }
        ]
      },
      {
        "id": 7,
        "type": "חשמלאי",
        "budget": null,
        "inPractice": 1813,
        "implementaion": "",
        "additional": [
          {
            "id": 1,
            "date": "13/12/20",
            "doubt": "שם של ספק",
            "for": "ביטוח צד שלישי",
            "sum": "1771.83",
            "invoicing": "https://opendocs.com/wp-content/uploads/2019/11/Google-Sheets-Featured-Image.jpg"
          },
          {
            "id": 2,
            "date": "13/12/20",
            "doubt": "שם של ספק",
            "for": "ביטוח צד שלישי",
            "sum": "1771.83",
            "invoicing": "https://opendocs.com/wp-content/uploads/2019/11/Google-Sheets-Featured-Image.jpg"
          },
          {
            "id": 3,
            "date": "13/12/20",
            "doubt": "שם של ספק",
            "for": "ביטוח צד שלישי",
            "sum": "1771.83",
            "invoicing": "https://opendocs.com/wp-content/uploads/2019/11/Google-Sheets-Featured-Image.jpg"
          },
          {
            "id": 4,
            "date": "13/12/20",
            "doubt": "שם של ספק",
            "for": "ביטוח צד שלישי",
            "sum": "1771.83",
            "invoicing": "https://opendocs.com/wp-content/uploads/2019/11/Google-Sheets-Featured-Image.jpg"
          },
          {
            "id": 5,
            "date": "13/12/20",
            "doubt": "שם של ספק",
            "for": "ביטוח צד שלישי",
            "sum": "1771.83",
            "invoicing": "https://opendocs.com/wp-content/uploads/2019/11/Google-Sheets-Featured-Image.jpg"
          },
          {
            "id": 6,
            "date": "13/12/20",
            "doubt": "שם של ספק",
            "for": "ביטוח צד שלישי",
            "sum": "1771.83",
            "invoicing": "https://opendocs.com/wp-content/uploads/2019/11/Google-Sheets-Featured-Image.jpg"
          },
          {
            "id": 7,
            "date": "13/12/20",
            "doubt": "שם של ספק",
            "for": "ביטוח צד שלישי",
            "sum": "1771.83",
            "invoicing": "https://opendocs.com/wp-content/uploads/2019/11/Google-Sheets-Featured-Image.jpg"
          },
          {
            "id": 8,
            "date": "13/12/20",
            "doubt": "שם של ספק",
            "for": "ביטוח צד שלישי",
            "sum": "1771.83",
            "invoicing": "https://opendocs.com/wp-content/uploads/2019/11/Google-Sheets-Featured-Image.jpg"
          },
          {
            "id": 9,
            "date": "13/12/20",
            "doubt": "שם של ספק",
            "for": "ביטוח צד שלישי",
            "sum": "1771.83",
            "invoicing": "https://opendocs.com/wp-content/uploads/2019/11/Google-Sheets-Featured-Image.jpg"
          },
          {
            "id": 10,
            "date": "13/12/20",
            "doubt": "שם של ספק",
            "for": "ביטוח צד שלישי",
            "sum": "1771.83",
            "invoicing": "https://opendocs.com/wp-content/uploads/2019/11/Google-Sheets-Featured-Image.jpg"
          },
          {
            "id": 11,
            "date": "13/12/20",
            "doubt": "שם של ספק",
            "for": "ביטוח צד שלישי",
            "sum": "1771.83",
            "invoicing": "https://opendocs.com/wp-content/uploads/2019/11/Google-Sheets-Featured-Image.jpg"
          },
          {
            "id": 12,
            "date": "13/12/20",
            "doubt": "שם של ספק",
            "for": "ביטוח צד שלישי",
            "sum": "1771.83",
            "invoicing": "https://opendocs.com/wp-content/uploads/2019/11/Google-Sheets-Featured-Image.jpg"
          }
        ]
      },
      {
        "id": 8,
        "type": "מעליות",
        "budget": 38000,
        "inPractice": 36958,
        "implementaion": "",
        "additional": [
          {
            "id": 1,
            "date": "13/12/20",
            "doubt": "שם של ספק",
            "for": "ביטוח צד שלישי",
            "sum": "1771.83",
            "invoicing": "https://opendocs.com/wp-content/uploads/2019/11/Google-Sheets-Featured-Image.jpg"
          },
          {
            "id": 2,
            "date": "13/12/20",
            "doubt": "שם של ספק",
            "for": "ביטוח צד שלישי",
            "sum": "1771.83",
            "invoicing": "https://opendocs.com/wp-content/uploads/2019/11/Google-Sheets-Featured-Image.jpg"
          },
          {
            "id": 3,
            "date": "13/12/20",
            "doubt": "שם של ספק",
            "for": "ביטוח צד שלישי",
            "sum": "1771.83",
            "invoicing": "https://opendocs.com/wp-content/uploads/2019/11/Google-Sheets-Featured-Image.jpg"
          },
          {
            "id": 4,
            "date": "13/12/20",
            "doubt": "שם של ספק",
            "for": "ביטוח צד שלישי",
            "sum": "1771.83",
            "invoicing": "https://opendocs.com/wp-content/uploads/2019/11/Google-Sheets-Featured-Image.jpg"
          },
          {
            "id": 5,
            "date": "13/12/20",
            "doubt": "שם של ספק",
            "for": "ביטוח צד שלישי",
            "sum": "1771.83",
            "invoicing": "https://opendocs.com/wp-content/uploads/2019/11/Google-Sheets-Featured-Image.jpg"
          },
          {
            "id": 6,
            "date": "13/12/20",
            "doubt": "שם של ספק",
            "for": "ביטוח צד שלישי",
            "sum": "1771.83",
            "invoicing": "https://opendocs.com/wp-content/uploads/2019/11/Google-Sheets-Featured-Image.jpg"
          },
          {
            "id": 7,
            "date": "13/12/20",
            "doubt": "שם של ספק",
            "for": "ביטוח צד שלישי",
            "sum": "1771.83",
            "invoicing": "https://opendocs.com/wp-content/uploads/2019/11/Google-Sheets-Featured-Image.jpg"
          },
          {
            "id": 8,
            "date": "13/12/20",
            "doubt": "שם של ספק",
            "for": "ביטוח צד שלישי",
            "sum": "1771.83",
            "invoicing": "https://opendocs.com/wp-content/uploads/2019/11/Google-Sheets-Featured-Image.jpg"
          },
          {
            "id": 9,
            "date": "13/12/20",
            "doubt": "שם של ספק",
            "for": "ביטוח צד שלישי",
            "sum": "1771.83",
            "invoicing": "https://opendocs.com/wp-content/uploads/2019/11/Google-Sheets-Featured-Image.jpg"
          },
          {
            "id": 10,
            "date": "13/12/20",
            "doubt": "שם של ספק",
            "for": "ביטוח צד שלישי",
            "sum": "1771.83",
            "invoicing": "https://opendocs.com/wp-content/uploads/2019/11/Google-Sheets-Featured-Image.jpg"
          },
          {
            "id": 11,
            "date": "13/12/20",
            "doubt": "שם של ספק",
            "for": "ביטוח צד שלישי",
            "sum": "1771.83",
            "invoicing": "https://opendocs.com/wp-content/uploads/2019/11/Google-Sheets-Featured-Image.jpg"
          },
          {
            "id": 12,
            "date": "13/12/20",
            "doubt": "שם של ספק",
            "for": "ביטוח צד שלישי",
            "sum": "1771.83",
            "invoicing": "https://opendocs.com/wp-content/uploads/2019/11/Google-Sheets-Featured-Image.jpg"
          }
        ]
      },
      {
        "id": 9,
        "type": "ניהול ואחזקה",
        "budget": null,
        "inPractice": 341276,
        "implementaion": "",
        "additional": [
          {
            "id": 1,
            "date": "13/12/20",
            "doubt": "שם של ספק",
            "for": "ביטוח צד שלישי",
            "sum": "1771.83",
            "invoicing": "https://opendocs.com/wp-content/uploads/2019/11/Google-Sheets-Featured-Image.jpg"
          },
          {
            "id": 2,
            "date": "13/12/20",
            "doubt": "שם של ספק",
            "for": "ביטוח צד שלישי",
            "sum": "1771.83",
            "invoicing": "https://opendocs.com/wp-content/uploads/2019/11/Google-Sheets-Featured-Image.jpg"
          },
          {
            "id": 3,
            "date": "13/12/20",
            "doubt": "שם של ספק",
            "for": "ביטוח צד שלישי",
            "sum": "1771.83",
            "invoicing": "https://opendocs.com/wp-content/uploads/2019/11/Google-Sheets-Featured-Image.jpg"
          },
          {
            "id": 4,
            "date": "13/12/20",
            "doubt": "שם של ספק",
            "for": "ביטוח צד שלישי",
            "sum": "1771.83",
            "invoicing": "https://opendocs.com/wp-content/uploads/2019/11/Google-Sheets-Featured-Image.jpg"
          },
          {
            "id": 5,
            "date": "13/12/20",
            "doubt": "שם של ספק",
            "for": "ביטוח צד שלישי",
            "sum": "1771.83",
            "invoicing": "https://opendocs.com/wp-content/uploads/2019/11/Google-Sheets-Featured-Image.jpg"
          },
          {
            "id": 6,
            "date": "13/12/20",
            "doubt": "שם של ספק",
            "for": "ביטוח צד שלישי",
            "sum": "1771.83",
            "invoicing": "https://opendocs.com/wp-content/uploads/2019/11/Google-Sheets-Featured-Image.jpg"
          },
          {
            "id": 7,
            "date": "13/12/20",
            "doubt": "שם של ספק",
            "for": "ביטוח צד שלישי",
            "sum": "1771.83",
            "invoicing": "https://opendocs.com/wp-content/uploads/2019/11/Google-Sheets-Featured-Image.jpg"
          },
          {
            "id": 8,
            "date": "13/12/20",
            "doubt": "שם של ספק",
            "for": "ביטוח צד שלישי",
            "sum": "1771.83",
            "invoicing": "https://opendocs.com/wp-content/uploads/2019/11/Google-Sheets-Featured-Image.jpg"
          },
          {
            "id": 9,
            "date": "13/12/20",
            "doubt": "שם של ספק",
            "for": "ביטוח צד שלישי",
            "sum": "1771.83",
            "invoicing": "https://opendocs.com/wp-content/uploads/2019/11/Google-Sheets-Featured-Image.jpg"
          },
          {
            "id": 10,
            "date": "13/12/20",
            "doubt": "שם של ספק",
            "for": "ביטוח צד שלישי",
            "sum": "1771.83",
            "invoicing": "https://opendocs.com/wp-content/uploads/2019/11/Google-Sheets-Featured-Image.jpg"
          },
          {
            "id": 11,
            "date": "13/12/20",
            "doubt": "שם של ספק",
            "for": "ביטוח צד שלישי",
            "sum": "1771.83",
            "invoicing": "https://opendocs.com/wp-content/uploads/2019/11/Google-Sheets-Featured-Image.jpg"
          },
          {
            "id": 12,
            "date": "13/12/20",
            "doubt": "שם של ספק",
            "for": "ביטוח צד שלישי",
            "sum": "1771.83",
            "invoicing": "https://opendocs.com/wp-content/uploads/2019/11/Google-Sheets-Featured-Image.jpg"
          }
        ]
      },
      {
        "id": 10,
        "type": "נקיון",
        "budget": null,
        "inPractice": 6371,
        "implementaion": "",
        "additional": [
          {
            "id": 1,
            "date": "13/12/20",
            "doubt": "שם של ספק",
            "for": "ביטוח צד שלישי",
            "sum": "1771.83",
            "invoicing": "https://opendocs.com/wp-content/uploads/2019/11/Google-Sheets-Featured-Image.jpg"
          },
          {
            "id": 2,
            "date": "13/12/20",
            "doubt": "שם של ספק",
            "for": "ביטוח צד שלישי",
            "sum": "1771.83",
            "invoicing": "https://opendocs.com/wp-content/uploads/2019/11/Google-Sheets-Featured-Image.jpg"
          },
          {
            "id": 3,
            "date": "13/12/20",
            "doubt": "שם של ספק",
            "for": "ביטוח צד שלישי",
            "sum": "1771.83",
            "invoicing": "https://opendocs.com/wp-content/uploads/2019/11/Google-Sheets-Featured-Image.jpg"
          },
          {
            "id": 4,
            "date": "13/12/20",
            "doubt": "שם של ספק",
            "for": "ביטוח צד שלישי",
            "sum": "1771.83",
            "invoicing": "https://opendocs.com/wp-content/uploads/2019/11/Google-Sheets-Featured-Image.jpg"
          },
          {
            "id": 5,
            "date": "13/12/20",
            "doubt": "שם של ספק",
            "for": "ביטוח צד שלישי",
            "sum": "1771.83",
            "invoicing": "https://opendocs.com/wp-content/uploads/2019/11/Google-Sheets-Featured-Image.jpg"
          },
          {
            "id": 6,
            "date": "13/12/20",
            "doubt": "שם של ספק",
            "for": "ביטוח צד שלישי",
            "sum": "1771.83",
            "invoicing": "https://opendocs.com/wp-content/uploads/2019/11/Google-Sheets-Featured-Image.jpg"
          },
          {
            "id": 7,
            "date": "13/12/20",
            "doubt": "שם של ספק",
            "for": "ביטוח צד שלישי",
            "sum": "1771.83",
            "invoicing": "https://opendocs.com/wp-content/uploads/2019/11/Google-Sheets-Featured-Image.jpg"
          },
          {
            "id": 8,
            "date": "13/12/20",
            "doubt": "שם של ספק",
            "for": "ביטוח צד שלישי",
            "sum": "1771.83",
            "invoicing": "https://opendocs.com/wp-content/uploads/2019/11/Google-Sheets-Featured-Image.jpg"
          },
          {
            "id": 9,
            "date": "13/12/20",
            "doubt": "שם של ספק",
            "for": "ביטוח צד שלישי",
            "sum": "1771.83",
            "invoicing": "https://opendocs.com/wp-content/uploads/2019/11/Google-Sheets-Featured-Image.jpg"
          },
          {
            "id": 10,
            "date": "13/12/20",
            "doubt": "שם של ספק",
            "for": "ביטוח צד שלישי",
            "sum": "1771.83",
            "invoicing": "https://opendocs.com/wp-content/uploads/2019/11/Google-Sheets-Featured-Image.jpg"
          },
          {
            "id": 11,
            "date": "13/12/20",
            "doubt": "שם של ספק",
            "for": "ביטוח צד שלישי",
            "sum": "1771.83",
            "invoicing": "https://opendocs.com/wp-content/uploads/2019/11/Google-Sheets-Featured-Image.jpg"
          },
          {
            "id": 12,
            "date": "13/12/20",
            "doubt": "שם של ספק",
            "for": "ביטוח צד שלישי",
            "sum": "1771.83",
            "invoicing": "https://opendocs.com/wp-content/uploads/2019/11/Google-Sheets-Featured-Image.jpg"
          }
        ]
      },
      {
        "id": 11,
        "type": "עמלות בנקים",
        "budget": null,
        "inPractice": 554,
        "implementaion": "",
        "additional": [
          {
            "id": 1,
            "date": "13/12/20",
            "doubt": "שם של ספק",
            "for": "ביטוח צד שלישי",
            "sum": "1771.83",
            "invoicing": "https://opendocs.com/wp-content/uploads/2019/11/Google-Sheets-Featured-Image.jpg"
          },
          {
            "id": 2,
            "date": "13/12/20",
            "doubt": "שם של ספק",
            "for": "ביטוח צד שלישי",
            "sum": "1771.83",
            "invoicing": "https://opendocs.com/wp-content/uploads/2019/11/Google-Sheets-Featured-Image.jpg"
          },
          {
            "id": 3,
            "date": "13/12/20",
            "doubt": "שם של ספק",
            "for": "ביטוח צד שלישי",
            "sum": "1771.83",
            "invoicing": "https://opendocs.com/wp-content/uploads/2019/11/Google-Sheets-Featured-Image.jpg"
          },
          {
            "id": 4,
            "date": "13/12/20",
            "doubt": "שם של ספק",
            "for": "ביטוח צד שלישי",
            "sum": "1771.83",
            "invoicing": "https://opendocs.com/wp-content/uploads/2019/11/Google-Sheets-Featured-Image.jpg"
          },
          {
            "id": 5,
            "date": "13/12/20",
            "doubt": "שם של ספק",
            "for": "ביטוח צד שלישי",
            "sum": "1771.83",
            "invoicing": "https://opendocs.com/wp-content/uploads/2019/11/Google-Sheets-Featured-Image.jpg"
          },
          {
            "id": 6,
            "date": "13/12/20",
            "doubt": "שם של ספק",
            "for": "ביטוח צד שלישי",
            "sum": "1771.83",
            "invoicing": "https://opendocs.com/wp-content/uploads/2019/11/Google-Sheets-Featured-Image.jpg"
          },
          {
            "id": 7,
            "date": "13/12/20",
            "doubt": "שם של ספק",
            "for": "ביטוח צד שלישי",
            "sum": "1771.83",
            "invoicing": "https://opendocs.com/wp-content/uploads/2019/11/Google-Sheets-Featured-Image.jpg"
          },
          {
            "id": 8,
            "date": "13/12/20",
            "doubt": "שם של ספק",
            "for": "ביטוח צד שלישי",
            "sum": "1771.83",
            "invoicing": "https://opendocs.com/wp-content/uploads/2019/11/Google-Sheets-Featured-Image.jpg"
          },
          {
            "id": 9,
            "date": "13/12/20",
            "doubt": "שם של ספק",
            "for": "ביטוח צד שלישי",
            "sum": "1771.83",
            "invoicing": "https://opendocs.com/wp-content/uploads/2019/11/Google-Sheets-Featured-Image.jpg"
          },
          {
            "id": 10,
            "date": "13/12/20",
            "doubt": "שם של ספק",
            "for": "ביטוח צד שלישי",
            "sum": "1771.83",
            "invoicing": "https://opendocs.com/wp-content/uploads/2019/11/Google-Sheets-Featured-Image.jpg"
          },
          {
            "id": 11,
            "date": "13/12/20",
            "doubt": "שם של ספק",
            "for": "ביטוח צד שלישי",
            "sum": "1771.83",
            "invoicing": "https://opendocs.com/wp-content/uploads/2019/11/Google-Sheets-Featured-Image.jpg"
          },
          {
            "id": 12,
            "date": "13/12/20",
            "doubt": "שם של ספק",
            "for": "ביטוח צד שלישי",
            "sum": "1771.83",
            "invoicing": "https://opendocs.com/wp-content/uploads/2019/11/Google-Sheets-Featured-Image.jpg"
          }
        ]
      }
    ],
    "specialIncome": [
      {
        "id": 1,
        "type": "מיוחד",
        "budget": 44000 ,
        "inPractice": 41000,
        "implementaion": 93
      },
      {
        "id": 2,
        "type": "אחר",
        "budget": "---",
        "inPractice": "---",
        "implementaion": ""
      }
    ],
    "specialExpenses": [
      {
        "id": 1,
        "type": "אחזקה שונות",
        "budget": "",
        "inPractice": 200,
        "implementaion": "",
        "additional": [
          {
            "id": 1,
            "date": "13/12/20",
            "doubt": "שם של ספק",
            "for": "ביטוח צד שלישי",
            "sum": "1771.83",
            "invoicing": "https://opendocs.com/wp-content/uploads/2019/11/Google-Sheets-Featured-Image.jpg"
          },
          {
            "id": 2,
            "date": "13/12/20",
            "doubt": "שם של ספק",
            "for": "ביטוח צד שלישי",
            "sum": "1771.83",
            "invoicing": "https://opendocs.com/wp-content/uploads/2019/11/Google-Sheets-Featured-Image.jpg"
          },
          {
            "id": 3,
            "date": "13/12/20",
            "doubt": "שם של ספק",
            "for": "ביטוח צד שלישי",
            "sum": "1771.83",
            "invoicing": "https://opendocs.com/wp-content/uploads/2019/11/Google-Sheets-Featured-Image.jpg"
          }
        ]
      },
      {
        "id": 2,
        "type": "חניה",
        "budget": "",
        "inPractice": 1358,
        "implementaion": "",
        "additional": [
          {
            "id": 1,
            "date": "13/12/20",
            "doubt": "שם של ספק",
            "for": "ביטוח צד שלישי",
            "sum": "1771.83",
            "invoicing": "https://opendocs.com/wp-content/uploads/2019/11/Google-Sheets-Featured-Image.jpg"
          },
          {
            "id": 2,
            "date": "13/12/20",
            "doubt": "שם של ספק",
            "for": "ביטוח צד שלישי",
            "sum": "1771.83",
            "invoicing": "https://opendocs.com/wp-content/uploads/2019/11/Google-Sheets-Featured-Image.jpg"
          },
          {
            "id": 3,
            "date": "13/12/20",
            "doubt": "שם של ספק",
            "for": "ביטוח צד שלישי",
            "sum": "1771.83",
            "invoicing": "https://opendocs.com/wp-content/uploads/2019/11/Google-Sheets-Featured-Image.jpg"
          }
        ]
      },
      {
        "id": 3,
        "type": "מצלמות",
        "budget": "",
        "inPractice": 22480,
        "implementaion": "",
        "additional": [
          {
            "id": 1,
            "date": "13/12/20",
            "doubt": "שם של ספק",
            "for": "ביטוח צד שלישי",
            "sum": "1771.83",
            "invoicing": "https://opendocs.com/wp-content/uploads/2019/11/Google-Sheets-Featured-Image.jpg"
          },
          {
            "id": 2,
            "date": "13/12/20",
            "doubt": "שם של ספק",
            "for": "ביטוח צד שלישי",
            "sum": "1771.83",
            "invoicing": "https://opendocs.com/wp-content/uploads/2019/11/Google-Sheets-Featured-Image.jpg"
          },
          {
            "id": 3,
            "date": "13/12/20",
            "doubt": "שם של ספק",
            "for": "ביטוח צד שלישי",
            "sum": "1771.83",
            "invoicing": "https://opendocs.com/wp-content/uploads/2019/11/Google-Sheets-Featured-Image.jpg"
          }
        ]
      },
      {
        "id": 4,
        "type": "עיצוב וריהוט",
        "budget": "",
        "inPractice": 5550,
        "implementaion": "",
        "additional": [
          {
            "id": 1,
            "date": "13/12/20",
            "doubt": "שם של ספק",
            "for": "ביטוח צד שלישי",
            "sum": "1771.83",
            "invoicing": "https://opendocs.com/wp-content/uploads/2019/11/Google-Sheets-Featured-Image.jpg"
          },
          {
            "id": 2,
            "date": "13/12/20",
            "doubt": "שם של ספק",
            "for": "ביטוח צד שלישי",
            "sum": "1771.83",
            "invoicing": "https://opendocs.com/wp-content/uploads/2019/11/Google-Sheets-Featured-Image.jpg"
          },
          {
            "id": 3,
            "date": "13/12/20",
            "doubt": "שם של ספק",
            "for": "ביטוח צד שלישי",
            "sum": "1771.83",
            "invoicing": "https://opendocs.com/wp-content/uploads/2019/11/Google-Sheets-Featured-Image.jpg"
          }
        ]
      },
      {
        "id": 5,
        "type": "שכפול מפתחות",
        "budget": "",
        "inPractice": 2223,
        "implementaion": "",
        "additional": [
          {
            "id": 1,
            "date": "13/12/20",
            "doubt": "שם של ספק",
            "for": "ביטוח צד שלישי",
            "sum": "1771.83",
            "invoicing": "https://opendocs.com/wp-content/uploads/2019/11/Google-Sheets-Featured-Image.jpg"
          },
          {
            "id": 2,
            "date": "13/12/20",
            "doubt": "שם של ספק",
            "for": "ביטוח צד שלישי",
            "sum": "1771.83",
            "invoicing": "https://opendocs.com/wp-content/uploads/2019/11/Google-Sheets-Featured-Image.jpg"
          },
          {
            "id": 3,
            "date": "13/12/20",
            "doubt": "שם של ספק",
            "for": "ביטוח צד שלישי",
            "sum": "1771.83",
            "invoicing": "https://opendocs.com/wp-content/uploads/2019/11/Google-Sheets-Featured-Image.jpg"
          }
        ]
      },
      {
        "id": 6,
        "type": "תקשורת",
        "budget": "",
        "inPractice": 389,
        "implementaion": "",
        "additional": [
          {
            "id": 1,
            "date": "13/12/20",
            "doubt": "שם של ספק",
            "for": "ביטוח צד שלישי",
            "sum": "1771.83",
            "invoicing": "https://opendocs.com/wp-content/uploads/2019/11/Google-Sheets-Featured-Image.jpg"
          },
          {
            "id": 2,
            "date": "13/12/20",
            "doubt": "שם של ספק",
            "for": "ביטוח צד שלישי",
            "sum": "1771.83",
            "invoicing": "https://opendocs.com/wp-content/uploads/2019/11/Google-Sheets-Featured-Image.jpg"
          },
          {
            "id": 3,
            "date": "13/12/20",
            "doubt": "שם של ספק",
            "for": "ביטוח צד שלישי",
            "sum": "1771.83",
            "invoicing": "https://opendocs.com/wp-content/uploads/2019/11/Google-Sheets-Featured-Image.jpg"
          }
        ]
      }
    ],
    "general": [
      {
        "id": 1,
        "type": "הכנסות מיסי ועד ומיוחדות",
        "budget": 482188,
        "inPractice": 465332,
        "implementaion": ""
      },
      {
        "id": 2,
        "type": "",
        "budget": "",
        "inPractice": 499184,
        "implementaion": ""
      }
    ]
  },
  "cumulativeBalance": 492188
}