[
  {
    "icon": "fire-department",
    "label": "כיבוי אש"
  },
  {
    "icon": "insurance",
    "label": "ביטוח"
  },
  {
    "icon": "roof",
    "label": "גג"
  },
  {
    "icon": "jazz",
    "label": "גז"
  },
  {
    "icon": "gardening",
    "label": "גינון"
  },
  {
    "icon": "generator",
    "label": "גנרטור"
  },
  {
    "icon": "pesticide",
    "label": "הדברה"
  },
  {
    "icon": "heating",
    "label": "חימום"
  },
  {
    "icon": "parking",
    "label": "חניה"
  },
  {
    "icon": "electrical-power",
    "label": "חשמל"
  },
  {
    "icon": "phone",
    "label": "טלפון"
  },
  {
    "icon": "entrance-and-intercom",
    "label": "כניסה ואינטרקום"
  },
  {
    "icon": "water",
    "label": "מים"
  },
  {
    "icon": "elevators",
    "label": "מעליות"
  },
  {
    "icon": "blowers",
    "label": "מפוחים"
  },
  {
    "icon": "keys",
    "label": "מפתחות"
  },
  {
    "icon": "receiver",
    "label": "מקלט"
  },
  {
    "icon": "pumps-dips",
    "label": "משאבות טבולות"
  },
  {
    "icon": "cleanliness",
    "label": "ניקיון"
  },
  {
    "icon": "pumps-water-pressure",
    "label": "משאבות לחץ מים"
  },
  {
    "icon": "water-reservoirs",
    "label": "מאגרי מים"
  },
  {
    "icon": "fire-hubs",
    "label": "רכזות אש"
  },
  {
    "icon": "sprinklers",
    "label": "ספרינקלרים"
  },
  {
    "icon": "cameras-and-security",
    "label": "מצלמות ואבטחה"
  },
  {
    "icon": "signage",
    "label": "שילוט"
  },
  {
    "icon": "garbage",
    "label": "אשפה"
  },
  {
    "icon": "general",
    "label": "כללי"
  },
  {
    "icon": "air-conditioning",
    "label": "מיזוג אויר"
  }
]