{
  "labels": [
    "Were treated",
    "Open",
    "Planned"
  ],
  "items": [
    {
      "id": 1,
      "status": 0,
      "buildingId": 1,
      "date": "28/01/21",
      "attachments": [
        {
          "name": "favicon.ico",
          "link": "https://cdn.pixabay.com/photo/2014/02/27/16/10/tree-276014__340.jpg"
        },
        {
          "name": "favicon.ico",
          "link": "https://encrypted-tbn0.gstatic.com/images?q=tbn:ANd9GcQkjmUyRahAl-j_OOJFpM8jl2wbyQ0z7SI_0w&usqp=CAU"
        }
      ],
      "name": "אין לך חוב לועד הבית",
      "description": "טקסט של תוכן של ההודעה טקסט של תוכן ההודעה טקסט של תוכן של ההודעה"
    },
    {
      "id": 2,
      "status": 0,
      "buildingId": 1,
      "date": "28/01/21",
      "attachments": [
        {
          "name": "favicon.ico",
          "link": "https://cdn.pixabay.com/photo/2014/02/27/16/10/tree-276014__340.jpg"
        }
      ],
      "name": "אין לך חוב לועד הבית",
      "description": "טקסט של תוכן של ההודעה טקסט של תוכן ההודעה טקסט של תוכן של ההודעה"
    },
    {
      "id": 3,
      "status": 0,
      "buildingId": 1,
      "date": "28/01/21",
      "attachments": [
        {
          "name": "favicon.ico",
          "link": "https://cdn.pixabay.com/photo/2014/02/27/16/10/tree-276014__340.jpg"
        }
      ],
      "name": "אין לך חוב לועד הבית",
      "description": "טקסט של תוכן של ההודעה טקסט של תוכן ההודעה טקסט של תוכן של ההודעה"
    },
    {
      "id": 4,
      "status": 0,
      "buildingId": 1,
      "date": "28/01/21",
      "attachments": [
        {
          "name": "favicon.ico",
          "link": "https://cdn.pixabay.com/photo/2014/02/27/16/10/tree-276014__340.jpg"
        }
      ],
      "name": "אין לך חוב לועד הבית",
      "description": "טקסט של תוכן של ההודעה טקסט של תוכן ההודעה טקסט של תוכן של ההודעה"
    },
    {
      "id": 5,
      "status": 0,
      "buildingId": 1,
      "date": "28/01/21",
      "attachments": [
        {
          "name": "favicon.ico",
          "link": "https://cdn.pixabay.com/photo/2014/02/27/16/10/tree-276014__340.jpg"
        }
      ],
      "name": "אין לך חוב לועד הבית",
      "description": "טקסט של תוכן של ההודעה טקסט של תוכן ההודעה טקסט של תוכן של ההודעה"
    },
    {
      "id": 6,
      "status": 0,
      "buildingId": 1,
      "date": "28/01/21",
      "attachments": [
        {
          "name": "favicon.ico",
          "link": "https://cdn.pixabay.com/photo/2014/02/27/16/10/tree-276014__340.jpg"
        }
      ],
      "name": "אין לך חוב לועד הבית",
      "description": "טקסט של תוכן של ההודעה טקסט של תוכן ההודעה טקסט של תוכן של ההודעה"
    },
    {
      "id": 7,
      "status": 0,
      "buildingId": 1,
      "date": "28/01/21",
      "attachments": [
        {
          "name": "favicon.ico",
          "link": "https://cdn.pixabay.com/photo/2014/02/27/16/10/tree-276014__340.jpg"
        }
      ],
      "name": "אין לך חוב לועד הבית",
      "description": "טקסט של תוכן של ההודעה טקסט של תוכן ההודעה טקסט של תוכן של ההודעה"
    },
    {
      "id": 8,
      "status": 0,
      "buildingId": 1,
      "date": "28/01/21",
      "attachments": [
        {
          "name": "favicon.ico",
          "link": "https://cdn.pixabay.com/photo/2014/02/27/16/10/tree-276014__340.jpg"
        }
      ],
      "name": "אין לך חוב לועד הבית",
      "description": "טקסט של תוכן של ההודעה טקסט של תוכן ההודעה טקסט של תוכן של ההודעה"
    },
    {
      "id": 9,
      "status": 0,
      "buildingId": 1,
      "date": "28/01/21",
      "attachments": [
        {
          "name": "favicon.ico",
          "link": "https://cdn.pixabay.com/photo/2014/02/27/16/10/tree-276014__340.jpg"
        }
      ],
      "name": "אין לך חוב לועד הבית",
      "description": "טקסט של תוכן של ההודעה טקסט של תוכן ההודעה טקסט של תוכן של ההודעה"
    },
    {
      "id": 10,
      "status": 0,
      "buildingId": 1,
      "date": "28/01/21",
      "attachments": [
        {
          "name": "favicon.ico",
          "link": "https://cdn.pixabay.com/photo/2014/02/27/16/10/tree-276014__340.jpg"
        }
      ],
      "name": "אין לך חוב לועד הבית",
      "description": "טקסט של תוכן של ההודעה טקסט של תוכן ההודעה טקסט של תוכן של ההודעה"
    },
    {
      "id": 11,
      "status": 0,
      "buildingId": 1,
      "date": "28/01/21",
      "attachments": [
        {
          "name": "favicon.ico",
          "link": "https://cdn.pixabay.com/photo/2014/02/27/16/10/tree-276014__340.jpg"
        }
      ],
      "name": "אין לך חוב לועד הבית",
      "description": "טקסט של תוכן של ההודעה טקסט של תוכן ההודעה טקסט של תוכן של ההודעה"
    },
    {
      "id": 12,
      "status": 0,
      "buildingId": 1,
      "date": "28/01/21",
      "attachments": [
        {
          "name": "favicon.ico",
          "link": "https://cdn.pixabay.com/photo/2014/02/27/16/10/tree-276014__340.jpg"
        }
      ],
      "name": "אין לך חוב לועד הבית",
      "description": "טקסט של תוכן של ההודעה טקסט של תוכן ההודעה טקסט של תוכן של ההודעה"
    },
    {
      "id": 13,
      "status": 0,
      "buildingId": 1,
      "date": "28/01/21",
      "attachments": [
        {
          "name": "favicon.ico",
          "link": "https://cdn.pixabay.com/photo/2014/02/27/16/10/tree-276014__340.jpg"
        }
      ],
      "name": "אין לך חוב לועד הבית",
      "description": "טקסט של תוכן של ההודעה טקסט של תוכן ההודעה טקסט של תוכן של ההודעה"
    },
    {
      "id": 14,
      "status": 0,
      "buildingId": 1,
      "date": "28/01/21",
      "attachments": [
        {
          "name": "favicon.ico",
          "link": "https://cdn.pixabay.com/photo/2014/02/27/16/10/tree-276014__340.jpg"
        }
      ],
      "name": "אין לך חוב לועד הבית",
      "description": "טקסט של תוכן של ההודעה טקסט של תוכן ההודעה טקסט של תוכן של ההודעה"
    },
    {
      "id": 15,
      "status": 0,
      "buildingId": 1,
      "date": "28/01/21",
      "attachments": [
        {
          "name": "favicon.ico",
          "link": "https://cdn.pixabay.com/photo/2014/02/27/16/10/tree-276014__340.jpg"
        }
      ],
      "name": "אין לך חוב לועד הבית",
      "description": "טקסט של תוכן של ההודעה טקסט של תוכן ההודעה טקסט של תוכן של ההודעה"
    },
    {
      "id": 16,
      "status": 0,
      "buildingId": 1,
      "date": "28/01/21",
      "attachments": [
        {
          "name": "favicon.ico",
          "link": "https://cdn.pixabay.com/photo/2014/02/27/16/10/tree-276014__340.jpg"
        }
      ],
      "name": "אין לך חוב לועד הבית",
      "description": "טקסט של תוכן של ההודעה טקסט של תוכן ההודעה טקסט של תוכן של ההודעה"
    },
    {
      "id": 17,
      "status": 0,
      "buildingId": 1,
      "date": "28/01/21",
      "attachments": [
        {
          "name": "favicon.ico",
          "link": "https://cdn.pixabay.com/photo/2014/02/27/16/10/tree-276014__340.jpg"
        }
      ],
      "name": "אין לך חוב לועד הבית",
      "description": "טקסט של תוכן של ההודעה טקסט של תוכן ההודעה טקסט של תוכן של ההודעה"
    },
    {
      "id": 18,
      "status": 0,
      "buildingId": 1,
      "date": "28/01/21",
      "attachments": [
        {
          "name": "favicon.ico",
          "link": "https://cdn.pixabay.com/photo/2014/02/27/16/10/tree-276014__340.jpg"
        }
      ],
      "name": "אין לך חוב לועד הבית",
      "description": "טקסט של תוכן של ההודעה טקסט של תוכן ההודעה טקסט של תוכן של ההודעה"
    },
    {
      "id": 19,
      "status": 0,
      "buildingId": 1,
      "date": "28/01/21",
      "attachments": [
        {
          "name": "favicon.ico",
          "link": "https://cdn.pixabay.com/photo/2014/02/27/16/10/tree-276014__340.jpg"
        }
      ],
      "name": "אין לך חוב לועד הבית",
      "description": "טקסט של תוכן של ההודעה טקסט של תוכן ההודעה טקסט של תוכן של ההודעה"
    },
    {
      "id": 20,
      "status": 0,
      "buildingId": 1,
      "date": "28/01/21",
      "attachments": [
        {
          "name": "favicon.ico",
          "link": "https://cdn.pixabay.com/photo/2014/02/27/16/10/tree-276014__340.jpg"
        }
      ],
      "name": "אין לך חוב לועד הבית",
      "description": "טקסט של תוכן של ההודעה טקסט של תוכן ההודעה טקסט של תוכן של ההודעה"
    },
    {
      "id": 21,
      "status": 0,
      "buildingId": 1,
      "date": "28/01/21",
      "attachments": [
        {
          "name": "favicon.ico",
          "link": "https://cdn.pixabay.com/photo/2014/02/27/16/10/tree-276014__340.jpg"
        }
      ],
      "name": "אין לך חוב לועד הבית",
      "description": "טקסט של תוכן של ההודעה טקסט של תוכן ההודעה טקסט של תוכן של ההודעה"
    },
    {
      "id": 22,
      "status": 0,
      "buildingId": 1,
      "date": "28/01/21",
      "attachments": [
        {
          "name": "favicon.ico",
          "link": "https://cdn.pixabay.com/photo/2014/02/27/16/10/tree-276014__340.jpg"
        }
      ],
      "name": "אין לך חוב לועד הבית",
      "description": "טקסט של תוכן של ההודעה טקסט של תוכן ההודעה טקסט של תוכן של ההודעה"
    },
    {
      "id": 23,
      "status": 0,
      "buildingId": 1,
      "date": "28/01/21",
      "attachments": [
        {
          "name": "favicon.ico",
          "link": "https://cdn.pixabay.com/photo/2014/02/27/16/10/tree-276014__340.jpg"
        }
      ],
      "name": "אין לך חוב לועד הבית",
      "description": "טקסט של תוכן של ההודעה טקסט של תוכן ההודעה טקסט של תוכן של ההודעה"
    },
    {
      "id": 24,
      "status": 0,
      "buildingId": 1,
      "date": "28/01/21",
      "attachments": [
        {
          "name": "favicon.ico",
          "link": "https://cdn.pixabay.com/photo/2014/02/27/16/10/tree-276014__340.jpg"
        }
      ],
      "name": "אין לך חוב לועד הבית",
      "description": "טקסט של תוכן של ההודעה טקסט של תוכן ההודעה טקסט של תוכן של ההודעה"
    },
    {
      "id": 25,
      "status": 0,
      "buildingId": 1,
      "date": "28/01/21",
      "attachments": [
        {
          "name": "favicon.ico",
          "link": "https://cdn.pixabay.com/photo/2014/02/27/16/10/tree-276014__340.jpg"
        }
      ],
      "name": "אין לך חוב לועד הבית",
      "description": "טקסט של תוכן של ההודעה טקסט של תוכן ההודעה טקסט של תוכן של ההודעה"
    },
    {
      "id": 26,
      "status": 0,
      "buildingId": 1,
      "date": "28/01/21",
      "attachments": [
        {
          "name": "favicon.ico",
          "link": "https://cdn.pixabay.com/photo/2014/02/27/16/10/tree-276014__340.jpg"
        }
      ],
      "name": "אין לך חוב לועד הבית",
      "description": "טקסט של תוכן של ההודעה טקסט של תוכן ההודעה טקסט של תוכן של ההודעה"
    },
    {
      "id": 27,
      "status": 0,
      "buildingId": 1,
      "date": "28/01/21",
      "attachments": [
        {
          "name": "favicon.ico",
          "link": "https://cdn.pixabay.com/photo/2014/02/27/16/10/tree-276014__340.jpg"
        }
      ],
      "name": "אין לך חוב לועד הבית",
      "description": "טקסט של תוכן של ההודעה טקסט של תוכן ההודעה טקסט של תוכן של ההודעה"
    },
    {
      "id": 28,
      "status": 0,
      "buildingId": 1,
      "date": "28/01/21",
      "attachments": [
        {
          "name": "favicon.ico",
          "link": "https://cdn.pixabay.com/photo/2014/02/27/16/10/tree-276014__340.jpg"
        }
      ],
      "name": "אין לך חוב לועד הבית",
      "description": "טקסט של תוכן של ההודעה טקסט של תוכן ההודעה טקסט של תוכן של ההודעה"
    },
    {
      "id": 29,
      "status": 0,
      "buildingId": 1,
      "date": "28/01/21",
      "attachments": [
        {
          "name": "favicon.ico",
          "link": "https://cdn.pixabay.com/photo/2014/02/27/16/10/tree-276014__340.jpg"
        }
      ],
      "name": "אין לך חוב לועד הבית",
      "description": "טקסט של תוכן של ההודעה טקסט של תוכן ההודעה טקסט של תוכן של ההודעה"
    },
    {
      "id": 30,
      "status": 0,
      "buildingId": 1,
      "date": "28/01/21",
      "attachments": [
        {
          "name": "favicon.ico",
          "link": "https://cdn.pixabay.com/photo/2014/02/27/16/10/tree-276014__340.jpg"
        }
      ],
      "name": "אין לך חוב לועד הבית",
      "description": "טקסט של תוכן של ההודעה טקסט של תוכן ההודעה טקסט של תוכן של ההודעה"
    },
    {
      "id": 31,
      "status": 1,
      "buildingId": 1,
      "date": "28/01/21",
      "attachments": [
        {
          "name": "favicon.ico",
          "link": "https://cdn.pixabay.com/photo/2014/02/27/16/10/tree-276014__340.jpg"
        }
      ],
      "name": "אין לך חוב לועד הבית",
      "description": "טקסט של תוכן של ההודעה טקסט של תוכן ההודעה טקסט של תוכן של ההודעה"
    },
    {
      "id": 32,
      "status": 1,
      "buildingId": 1,
      "date": "28/01/21",
      "attachments": [
        {
          "name": "favicon.ico",
          "link": "https://cdn.pixabay.com/photo/2014/02/27/16/10/tree-276014__340.jpg"
        }
      ],
      "name": "אין לך חוב לועד הבית",
      "description": "טקסט של תוכן של ההודעה טקסט של תוכן ההודעה טקסט של תוכן של ההודעה"
    },
    {
      "id": 33,
      "status": 1,
      "buildingId": 1,
      "date": "28/01/21",
      "attachments": [
        {
          "name": "favicon.ico",
          "link": "https://cdn.pixabay.com/photo/2014/02/27/16/10/tree-276014__340.jpg"
        }
      ],
      "name": "אין לך חוב לועד הבית",
      "description": "טקסט של תוכן של ההודעה טקסט של תוכן ההודעה טקסט של תוכן של ההודעה"
    },
    {
      "id": 34,
      "status": 1,
      "buildingId": 1,
      "date": "28/01/21",
      "attachments": [
        {
          "name": "favicon.ico",
          "link": "https://cdn.pixabay.com/photo/2014/02/27/16/10/tree-276014__340.jpg"
        }
      ],
      "name": "אין לך חוב לועד הבית",
      "description": "טקסט של תוכן של ההודעה טקסט של תוכן ההודעה טקסט של תוכן של ההודעה"
    },
    {
      "id": 35,
      "status": 1,
      "buildingId": 1,
      "date": "28/01/21",
      "attachments": [
        {
          "name": "favicon.ico",
          "link": "https://cdn.pixabay.com/photo/2014/02/27/16/10/tree-276014__340.jpg"
        }
      ],
      "name": "אין לך חוב לועד הבית",
      "description": "טקסט של תוכן של ההודעה טקסט של תוכן ההודעה טקסט של תוכן של ההודעה"
    },
    {
      "id": 36,
      "status": 1,
      "buildingId": 1,
      "date": "28/01/21",
      "attachments": [
        {
          "name": "favicon.ico",
          "link": "https://cdn.pixabay.com/photo/2014/02/27/16/10/tree-276014__340.jpg"
        }
      ],
      "name": "אין לך חוב לועד הבית",
      "description": "טקסט של תוכן של ההודעה טקסט של תוכן ההודעה טקסט של תוכן של ההודעה"
    },
    {
      "id": 37,
      "status": 1,
      "buildingId": 1,
      "date": "28/01/21",
      "attachments": [
        {
          "name": "favicon.ico",
          "link": "https://cdn.pixabay.com/photo/2014/02/27/16/10/tree-276014__340.jpg"
        }
      ],
      "name": "אין לך חוב לועד הבית",
      "description": "טקסט של תוכן של ההודעה טקסט של תוכן ההודעה טקסט של תוכן של ההודעה"
    },
    {
      "id": 38,
      "status": 1,
      "buildingId": 1,
      "date": "28/01/21",
      "name": "אין לך חוב לועד הבית",
      "description": "טקסט של תוכן של ההודעה טקסט של תוכן ההודעה טקסט של תוכן של ההודעה"
    },
    {
      "id": 39,
      "status": 2,
      "buildingId": 1,
      "date": "28/01/21",
      "attachments": [
        {
          "name": "favicon.ico",
          "link": "https://cdn.pixabay.com/photo/2014/02/27/16/10/tree-276014__340.jpg"
        }
      ],
      "name": "אין לך חוב לועד הבית",
      "description": "טקסט של תוכן של ההודעה טקסט של תוכן ההודעה טקסט של תוכן של ההודעה"
    },
    {
      "id": 40,
      "status": 2,
      "buildingId": 1,
      "date": "28/01/21",
      "name": "אין לך חוב לועד הבית",
      "description": "טקסט של תוכן של ההודעה טקסט של תוכן ההודעה טקסט של תוכן של ההודעה"
    },
    {
      "id": 41,
      "status": 2,
      "buildingId": 1,
      "date": "28/01/21",
      "attachments": [
        {
          "name": "favicon.ico",
          "link": "https://cdn.pixabay.com/photo/2014/02/27/16/10/tree-276014__340.jpg"
        }
      ],
      "name": "אין לך חוב לועד הבית",
      "description": "טקסט של תוכן של ההודעה טקסט של תוכן ההודעה טקסט של תוכן של ההודעה"
    },
    {
      "id": 42,
      "status": 2,
      "buildingId": 1,
      "date": "28/01/21",
      "name": "אין לך חוב לועד הבית",
      "description": "טקסט של תוכן של ההודעה טקסט של תוכן ההודעה טקסט של תוכן של ההודעה"
    },
    {
      "id": 43,
      "status": 2,
      "buildingId": 1,
      "date": "28/01/21",
      "name": "אין לך חוב לועד הבית",
      "description": "טקסט של תוכן של ההודעה טקסט של תוכן ההודעה טקסט של תוכן של ההודעה"
    },
    {
      "id": 44,
      "status": 2,
      "buildingId": 1,
      "date": "28/01/21",
      "name": "אין לך חוב לועד הבית",
      "description": "טקסט של תוכן של ההודעה טקסט של תוכן ההודעה טקסט של תוכן של ההודעה"
    },
    {
      "id": 45,
      "status": 2,
      "buildingId": 1,
      "date": "28/01/21",
      "name": "אין לך חוב לועד הבית",
      "description": "טקסט של תוכן של ההודעה טקסט של תוכן ההודעה טקסט של תוכן של ההודעה"
    },
    {
      "id": 46,
      "status": 2,
      "buildingId": 1,
      "date": "28/01/21",
      "attachments": [
        {
          "name": "favicon.ico",
          "link": "https://cdn.pixabay.com/photo/2014/02/27/16/10/tree-276014__340.jpg"
        }
      ],
      "name": "אין לך חוב לועד הבית",
      "description": "טקסט של תוכן של ההודעה טקסט של תוכן ההודעה טקסט של תוכן של ההודעה"
    },
    {
      "id": 47,
      "status": 2,
      "buildingId": 1,
      "date": "28/01/21",
      "name": "אין לך חוב לועד הבית",
      "description": "טקסט של תוכן של ההודעה טקסט של תוכן ההודעה טקסט של תוכן של ההודעה"
    },
    {
      "id": 48,
      "status": 2,
      "buildingId": 1,
      "date": "28/01/21",
      "name": "אין לך חוב לועד הבית",
      "description": "טקסט של תוכן של ההודעה טקסט של תוכן ההודעה טקסט של תוכן של ההודעה"
    },
    {
      "id": 49,
      "status": 2,
      "buildingId": 1,
      "date": "28/01/21",
      "name": "אין לך חוב לועד הבית",
      "description": "טקסט של תוכן של ההודעה טקסט של תוכן ההודעה טקסט של תוכן של ההודעה"
    },
    {
      "id": 50,
      "status": 2,
      "buildingId": 1,
      "date": "28/01/21",
      "name": "אין לך חוב לועד הבית",
      "description": "טקסט של תוכן של ההודעה טקסט של תוכן ההודעה טקסט של תוכן של ההודעה"
    },
    {
      "id": 51,
      "status": 2,
      "buildingId": 1,
      "date": "28/01/21",
      "attachments": [
        {
          "name": "favicon.ico",
          "link": "https://cdn.pixabay.com/photo/2014/02/27/16/10/tree-276014__340.jpg"
        }
      ],
      "name": "אין לך חוב לועד הבית",
      "description": "טקסט של תוכן של ההודעה טקסט של תוכן ההודעה טקסט של תוכן של ההודעה"
    },
    {
      "id": 52,
      "status": 2,
      "buildingId": 1,
      "date": "28/01/21",
      "name": "אין לך חוב לועד הבית",
      "description": "טקסט של תוכן של ההודעה טקסט של תוכן ההודעה טקסט של תוכן של ההודעה"
    },
    {
      "id": 53,
      "status": 2,
      "buildingId": 1,
      "date": "28/01/21",
      "name": "אין לך חוב לועד הבית",
      "description": "טקסט של תוכן של ההודעה טקסט של תוכן ההודעה טקסט של תוכן של ההודעה"
    },
    {
      "id": 54,
      "status": 2,
      "buildingId": 1,
      "date": "28/01/21",
      "attachments": [
        {
          "name": "favicon.ico",
          "link": "https://cdn.pixabay.com/photo/2014/02/27/16/10/tree-276014__340.jpg"
        }
      ],
      "name": "אין לך חוב לועד הבית",
      "description": "טקסט של תוכן של ההודעה טקסט של תוכן ההודעה טקסט של תוכן של ההודעה"
    },
    {
      "id": 55,
      "status": 0,
      "buildingId": 2,
      "date": "28/01/21",
      "name": "אין לך חוב לועד הבית",
      "description": "טקסט של תוכן של ההודעה טקסט של תוכן ההודעה טקסט של תוכן של ההודעה"
    },
    {
      "id": 56,
      "status": 0,
      "buildingId": 2,
      "date": "28/01/21",
      "name": "אין לך חוב לועד הבית",
      "description": "טקסט של תוכן של ההודעה טקסט של תוכן ההודעה טקסט של תוכן של ההודעה"
    },
    {
      "id": 57,
      "status": 2,
      "buildingId": 2,
      "date": "28/01/21",
      "attachments": [
        {
          "name": "favicon.ico",
          "link": "https://cdn.pixabay.com/photo/2014/02/27/16/10/tree-276014__340.jpg"
        }
      ],
      "name": "אין לך חוב לועד הבית",
      "description": "טקסט של תוכן של ההודעה טקסט של תוכן ההודעה טקסט של תוכן של ההודעה"
    },
    {
      "id": 58,
      "status": 2,
      "buildingId": 2,
      "date": "28/01/21",
      "name": "אין לך חוב לועד הבית",
      "description": "טקסט של תוכן של ההודעה טקסט של תוכן ההודעה טקסט של תוכן של ההודעה"
    },
    {
      "id": 59,
      "status": 2,
      "buildingId": 2,
      "date": "28/01/21",
      "name": "אין לך חוב לועד הבית",
      "description": "טקסט של תוכן של ההודעה טקסט של תוכן ההודעה טקסט של תוכן של ההודעה"
    },
    {
      "id": 60,
      "status": 2,
      "buildingId": 2,
      "date": "28/01/21",
      "attachments": [
        {
          "name": "favicon.ico",
          "link": "https://cdn.pixabay.com/photo/2014/02/27/16/10/tree-276014__340.jpg"
        }
      ],
      "name": "אין לך חוב לועד הבית",
      "description": "טקסט של תוכן של ההודעה טקסט של תוכן ההודעה טקסט של תוכן של ההודעה"
    },
    {
      "id": 61,
      "status": 2,
      "buildingId": 2,
      "date": "28/01/21",
      "attachments": [
        {
          "name": "favicon.ico",
          "link": "https://cdn.pixabay.com/photo/2014/02/27/16/10/tree-276014__340.jpg"
        }
      ],
      "name": "אין לך חוב לועד הבית",
      "description": "טקסט של תוכן של ההודעה טקסט של תוכן ההודעה טקסט של תוכן של ההודעה"
    },
    {
      "id": 62,
      "status": 2,
      "buildingId": 2,
      "date": "28/01/21",
      "attachments": [
        {
          "name": "favicon.ico",
          "link": "https://cdn.pixabay.com/photo/2014/02/27/16/10/tree-276014__340.jpg"
        }
      ],
      "name": "אין לך חוב לועד הבית",
      "description": "טקסט של תוכן של ההודעה טקסט של תוכן ההודעה טקסט של תוכן של ההודעה"
    }
  ] 
}